{
    "breadcrumbs": [
        {
            "label": "# Employees",
            "signal_field_name": "organization_num_employees_ranges",
            "value": "500,100000",
            "display_name": "500-100000"
        },
        {
            "label": "Company Locations",
            "signal_field_name": "organization_locations",
            "value": "United States",
            "display_name": "United States"
        },
        {
            "label": "Company Keywords Contain ANY Of",
            "signal_field_name": "q_organization_keyword_tags",
            "value": "Legal",
            "display_name": "Legal"
        },
        {
            "label": "Company Keywords Contain ANY Of",
            "signal_field_name": "q_organization_keyword_tags",
            "value": "Law",
            "display_name": "Law"
        }
    ],
    "partial_results_only": false,
    "disable_eu_prospecting": false,
    "partial_results_limit": 10000,
    "pagination": {
        "page": 1,
        "per_page": 10,
        "total_entries": 901,
        "total_pages": 91
    },
    "accounts": [
        {
            "id": "65ef51489aee1600077a00dc",
            "name": "LegalZoom",
            "website_url": "http://www.legalzoom.com",
            "blog_url": null,
            "angellist_url": "http://angel.co/legalzoom-com",
            "linkedin_url": "http://www.linkedin.com/company/legalzoom",
            "twitter_url": "http://twitter.com/@legalzoom",
            "facebook_url": "http://www.facebook.com/LegalZoom",
            "primary_phone": {
                "number": "+18557871221",
                "source": "Scraped",
                "sanitized_number": "+18557871221"
            },
            "languages": [
                "English"
            ],
            "alexa_ranking": 8711,
            "phone": "+18557871221",
            "linkedin_uid": "164705",
            "founded_year": 2001,
            "publicly_traded_symbol": "LZ",
            "publicly_traded_exchange": "nasdaq",
            "logo_url": "https://zenprospect-production.s3.amazonaws.com/uploads/pictures/65e593f4e27fb40007fb0ac8/picture",
            "crunchbase_url": null,
            "primary_domain": "legalzoom.com",
            "sanitized_phone": "+18557871221",
            "market_cap": "2.5B",
            "owned_by_organization_id": null,
            "organization_raw_address": "101 n brand blvd, ste 1100, glendale, ca 91203, us",
            "organization_city": "Glendale",
            "organization_street_address": "101 North Brand Boulevard",
            "organization_state": "California",
            "organization_country": "United States",
            "organization_postal_code": "91203",
            "suggest_location_enrichment": false,
            "domain": "legalzoom.com",
            "team_id": "65ef476d91b09e02eaa9a7a0",
            "organization_id": "54a11fcc69702d7fe6da2302",
            "account_stage_id": "65ef476d91b09e02eaa9a7aa",
            "source": "crm",
            "original_source": "crm",
            "creator_id": "65ef476e91b09e02eaa9a8db",
            "owner_id": null,
            "created_at": "2024-03-11T18:45:28.302Z",
            "phone_status": "no_status",
            "hubspot_id": null,
            "salesforce_id": null,
            "crm_owner_id": null,
            "parent_account_id": null,
            "account_playbook_statuses": [],
            "account_rule_config_statuses": [],
            "existence_level": "full",
            "label_ids": [],
            "typed_custom_fields": {},
            "modality": "account",
            "crm_record_url": null,
            "contact_emailer_campaign_ids": [],
            "contact_campaign_status_tally": {},
            "num_contacts": 2,
            "last_activity_date": "2024-01-05T18:30:00.000+00:00",
            "intent_strength": null,
            "show_intent": true,
            "has_intent_signal_account": false
        }
    ],
    "organizations": [
        {
            "id": "5a9d8ed6a6da98d954da78ec",
            "name": "Law Office",
            "website_url": "http://www.robmarklaw.com",
            "blog_url": null,
            "angellist_url": null,
            "linkedin_url": "http://www.linkedin.com/company/law-office_2",
            "twitter_url": null,
            "facebook_url": null,
            "primary_phone": {
                "number": "+19084648500",
                "source": "Account",
                "sanitized_number": "+19084648500"
            },
            "languages": [],
            "alexa_ranking": null,
            "phone": "+19084648500",
            "linkedin_uid": "607850",
            "founded_year": null,
            "publicly_traded_symbol": null,
            "publicly_traded_exchange": null,
            "logo_url": "https://zenprospect-production.s3.amazonaws.com/uploads/pictures/63edac09a4ccae0001634980/picture",
            "crunchbase_url": null,
            "primary_domain": "robmarklaw.com",
            "sanitized_phone": "+19084648500",
            "owned_by_organization_id": null,
            "intent_strength": null,
            "show_intent": true,
            "has_intent_signal_account": false
        },
        {
            "id": "5f4840dd96801f0001adeefe",
            "name": "Latham \u0026 Watkins",
            "website_url": "http://www.lw.com",
            "blog_url": null,
            "angellist_url": "http://angel.co/latham-watkins",
            "linkedin_url": "http://www.linkedin.com/company/latham-\u0026-watkins",
            "twitter_url": "http://www.twitter.com/lathamwatkins",
            "facebook_url": "http://www.facebook.com/lathamwatkins",
            "primary_phone": {
                "number": "+132-2-788-6000",
                "source": "Owler",
                "sanitized_number": "+13227886000"
            },
            "languages": [
                "English",
                "German",
                "Spanish",
                "French",
                "Japanese",
                "Russian"
            ],
            "alexa_ranking": null,
            "phone": "+132-2-788-6000",
            "linkedin_uid": "4931",
            "founded_year": 1934,
            "publicly_traded_symbol": null,
            "publicly_traded_exchange": null,
            "logo_url": "https://zenprospect-production.s3.amazonaws.com/uploads/pictures/65eeb6c46a9a4b0007cd624c/picture",
            "crunchbase_url": null,
            "primary_domain": "lw.com",
            "sanitized_phone": "+13227886000",
            "owned_by_organization_id": null,
            "intent_strength": null,
            "show_intent": true,
            "has_intent_signal_account": false
        },
        {
            "id": "556d7ea273696411de012201",
            "name": "United Nations",
            "website_url": "http://www.un.org",
            "blog_url": null,
            "angellist_url": null,
            "linkedin_url": "http://www.linkedin.com/company/united-nations",
            "twitter_url": "https://twitter.com/un",
            "facebook_url": "https://facebook.com/unitednations",
            "primary_phone": {
                "number": "+12129638687",
                "source": "Account",
                "sanitized_number": "+12129638687"
            },
            "languages": [
                "Spanish",
                "Chinese"
            ],
            "alexa_ranking": 1059,
            "phone": "+12129638687",
            "linkedin_uid": "1860",
            "founded_year": 1945,
            "publicly_traded_symbol": null,
            "publicly_traded_exchange": null,
            "logo_url": "https://zenprospect-production.s3.amazonaws.com/uploads/pictures/65ed7c82f1ee2f00064b5dfb/picture",
            "crunchbase_url": null,
            "primary_domain": "un.org",
            "sanitized_phone": "+12129638687",
            "owned_by_organization_id": null,
            "intent_strength": null,
            "show_intent": true,
            "has_intent_signal_account": false
        },
        {
            "id": "54a1347c69702d2db4f99900",
            "name": "The World Bank",
            "website_url": "http://www.worldbank.org",
            "blog_url": null,
            "angellist_url": null,
            "linkedin_url": "http://www.linkedin.com/company/the-world-bank",
            "twitter_url": "https://twitter.com/worldbank",
            "facebook_url": "https://facebook.com/worldbank",
            "primary_phone": {
                "number": "+1202-473-1000",
                "source": "Owler",
                "sanitized_number": "+12024731000"
            },
            "languages": [
                "English"
            ],
            "alexa_ranking": 2433,
            "phone": "+1202-473-1000",
            "linkedin_uid": "166426",
            "founded_year": 1944,
            "publicly_traded_symbol": null,
            "publicly_traded_exchange": "nyse",
            "logo_url": "https://zenprospect-production.s3.amazonaws.com/uploads/pictures/65eecedf6781f90007e64425/picture",
            "crunchbase_url": null,
            "primary_domain": "worldbank.org",
            "sanitized_phone": "+12024731000",
            "owned_by_organization_id": null,
            "intent_strength": null,
            "show_intent": true,
            "has_intent_signal_account": false
        },
        {
            "id": "5ed3558fe2dc9a0001f05d55",
            "name": "Harvard University",
            "website_url": "http://www.harvard.edu",
            "blog_url": null,
            "angellist_url": "http://angel.co/harvard-innovation-lab",
            "linkedin_url": "http://www.linkedin.com/school/harvard-university",
            "twitter_url": "http://twitter.com/innovationlab",
            "facebook_url": "https://www.facebook.com/harvardinnovationlab/",
            "primary_phone": {
                "number": "+1-617-495-1000",
                "source": "Owler",
                "sanitized_number": "+16174951000"
            },
            "languages": [
                "English"
            ],
            "alexa_ranking": 528,
            "phone": "+1-617-495-1000",
            "linkedin_uid": "1646",
            "founded_year": null,
            "publicly_traded_symbol": null,
            "publicly_traded_exchange": null,
            "logo_url": "https://zenprospect-production.s3.amazonaws.com/uploads/pictures/65eab0d9f8474f0007090c34/picture",
            "crunchbase_url": null,
            "primary_domain": "harvard.edu",
            "sanitized_phone": "+16174951000",
            "owned_by_organization_id": null,
            "intent_strength": null,
            "show_intent": true,
            "has_intent_signal_account": false
        },
        {
            "id": "5f49863b5b6b0600015990a7",
            "name": "White \u0026 Case LLP",
            "website_url": "http://www.whitecase.com",
            "blog_url": null,
            "angellist_url": null,
            "linkedin_url": "http://www.linkedin.com/company/white-\u0026-case",
            "twitter_url": "https://twitter.com/WhiteCase",
            "facebook_url": "https://www.facebook.com/whitecase/",
            "primary_phone": {
                "number": "+12128198200",
                "source": "Scraped",
                "sanitized_number": "+12128198200"
            },
            "languages": [
                "English",
                "Japanese"
            ],
            "alexa_ranking": 365790,
            "phone": "+12128198200",
            "linkedin_uid": "4920",
            "founded_year": 1901,
            "publicly_traded_symbol": null,
            "publicly_traded_exchange": "other",
            "logo_url": "https://zenprospect-production.s3.amazonaws.com/uploads/pictures/65eafb762486a2000710cc24/picture",
            "crunchbase_url": null,
            "primary_domain": "whitecase.com",
            "sanitized_phone": "+12128198200",
            "owned_by_organization_id": null,
            "intent_strength": null,
            "show_intent": true,
            "has_intent_signal_account": false
        },
        {
            "id": "54a1347369702d2db4159400",
            "name": "TransPerfect",
            "website_url": "http://www.transperfect.com",
            "blog_url": null,
            "angellist_url": null,
            "linkedin_url": "http://www.linkedin.com/company/transperfect",
            "twitter_url": "https://twitter.com/TransPerfect",
            "facebook_url": "https://www.facebook.com/TransPerfect/",
            "primary_phone": {
                "number": "+1 212-689-5555",
                "source": "Account",
                "sanitized_number": "+12126895555"
            },
            "languages": [
                "English",
                "Spanish",
                "Russian",
                "English",
                "German",
                "English"
            ],
            "alexa_ranking": 33139,
            "phone": "+1 212-689-5555",
            "linkedin_uid": "13299",
            "founded_year": 1992,
            "publicly_traded_symbol": null,
            "publicly_traded_exchange": null,
            "logo_url": "https://zenprospect-production.s3.amazonaws.com/uploads/pictures/65ec85c28faf4a0007a7a065/picture",
            "crunchbase_url": null,
            "primary_domain": "transperfect.com",
            "sanitized_phone": "+12126895555",
            "owned_by_organization_id": null,
            "intent_strength": null,
            "show_intent": true,
            "has_intent_signal_account": false
        },
        {
            "id": "5a9cba91a6da98d98c66b606",
            "name": "Law",
            "website_url": "http://www.attorneystone.com",
            "blog_url": null,
            "angellist_url": null,
            "linkedin_url": "http://www.linkedin.com/company/law",
            "twitter_url": null,
            "facebook_url": null,
            "primary_phone": {
                "number": "+1 832-640-1312",
                "source": "Account",
                "sanitized_number": "+18326401312"
            },
            "languages": [],
            "alexa_ranking": null,
            "phone": "+1 832-640-1312",
            "linkedin_uid": "422098",
            "founded_year": null,
            "publicly_traded_symbol": null,
            "publicly_traded_exchange": null,
            "logo_url": "https://zenprospect-production.s3.amazonaws.com/uploads/pictures/61a6f90c6898a70001c8cbd4/picture",
            "crunchbase_url": null,
            "primary_domain": "attorneystone.com",
            "sanitized_phone": "+18326401312",
            "owned_by_organization_id": null,
            "intent_strength": null,
            "show_intent": true,
            "has_intent_signal_account": false
        },
        {
            "id": "5f3e568890a8100001f5b6c1",
            "name": "Robert Half",
            "website_url": "http://www.roberthalf.com",
            "blog_url": null,
            "angellist_url": null,
            "linkedin_url": "http://www.linkedin.com/company/robert-half-international",
            "twitter_url": "https://twitter.com/roberthalf",
            "facebook_url": "https://facebook.com/roberthalf/",
            "primary_phone": {
                "number": "+1 650-234-6000",
                "source": "Account",
                "sanitized_number": "+16502346000"
            },
            "languages": [
                "English"
            ],
            "alexa_ranking": 14816,
            "phone": "+1 650-234-6000",
            "linkedin_uid": "1681",
            "founded_year": 1948,
            "publicly_traded_symbol": "RHI",
            "publicly_traded_exchange": "nasdaq",
            "logo_url": "https://zenprospect-production.s3.amazonaws.com/uploads/pictures/65eecb82143d6b0007cb5b60/picture",
            "crunchbase_url": null,
            "primary_domain": "roberthalf.com",
            "sanitized_phone": "+16502346000",
            "market_cap": "8.6B",
            "owned_by_organization_id": null,
            "intent_strength": null,
            "show_intent": true,
            "has_intent_signal_account": false
        }
    ],
    "model_ids": [
        "556d7ea273696411de012201",
        "5ed3558fe2dc9a0001f05d55",
        "5f3e568890a8100001f5b6c1",
        "54a1347c69702d2db4f99900",
        "5f49863b5b6b0600015990a7",
        "5f4840dd96801f0001adeefe",
        "65ef51489aee1600077a00dc",
        "54a1347369702d2db4159400",
        "5a9cba91a6da98d98c66b606",
        "5a9d8ed6a6da98d954da78ec"
    ],
    "num_fetch_result": null,
    "derived_params": {}
}